…
### Dicarboxylic acid

```R
> data("standard_dic")
> standard_dic
# A tibble: 25 × 11
   id          name                  rt    lc    ri exactmass formula  smiles                inchi   inchikey predicted
   <chr>       <chr>              <dbl> <dbl> <dbl>     <dbl> <chr>    <chr>                 <chr>   <chr>    <lgl>    
 1 HMDB0002329 Oxalic acid         0.54     2   200      90.0 C2H2O4   OC(=O)C(O)=O          InChI=… MUBZPKH… FALSE    
 2 HMDB0000691 Malonic acid        0.73     3   300     104.  C3H4O4   OC(=O)CC(O)=O         InChI=… OFOBLEO… FALSE    
 3 HMDB0000254 Succinic acid       1.4      4   400     118.  C4H6O4   OC(=O)CCC(O)=O        InChI=… KDYFGRW… FALSE    
 4 HMDB0000661 Glutaric acid       2.39     5   500     132.  C5H8O4   OC(=O)CCCC(O)=O       InChI=… JFCQEDH… FALSE    
 5 HMDB0000448 Adipic acid         3.15     6   600     146.  C6H10O4  OC(=O)CCCCC(O)=O      InChI=… WNLRTRB… FALSE    
 6 HMDB0000857 Pimelic acid        3.91     7   700     160.  C7H12O4  OC(=O)CCCCCC(O)=O     InChI=… WLJVNTC… FALSE    
 7 HMDB0000893 Suberic acid        4.52     8   800     174.  C8H14O4  OC(=O)CCCCCCC(O)=O    InChI=… TYFQFVW… FALSE    
 8 HMDB0000784 Azelaic acid        5.05     9   900     188.  C9H16O4  OC(=O)CCCCCCCC(O)=O   InChI=… BDJRBEY… FALSE    
 9 HMDB0000792 Sebacic acid        5.53    10  1000     202.  C10H18O4 OC(=O)CCCCCCCCC(O)=O  InChI=… CXMXRPH… FALSE    
10 HMDB0000888 Undecanedioic acid  5.98    11  1100     216.  C11H20O4 OC(=O)CCCCCCCCCC(O)=O InChI=… LWBHHRR… FALSE    
# ℹ 15 more rows
# ℹ Use `print(n = ...)` to see more rows
```

### Hydroxy fatty acid

```R
> data("standard_hyd")
> standard_hyd
# A tibble: 21 × 11
   id          name                        rt    lc    ri exactmass formula  smiles            inchi inchikey predicted
   <chr>       <chr>                    <dbl> <dbl> <dbl>     <dbl> <chr>    <chr>             <chr> <chr>    <lgl>    
 1 HMDB0000115 Glycolic acid             0.63     2   200      76.0 C2H4O3   OCC(O)=O          InCh… AEMRFAO… FALSE    
 2 HMDB0000190 L-Lactic acid             0.9      3   300      90.0 C3H6O3   C[C@H](O)C(O)=O   InCh… JVTAAEK… FALSE    
 3 CID11266    2-Hydroxybutyric acid     1.82     4   400     104.  C4H8O3   CCC(C(=O)O)O      InCh… AFENDNX… FALSE    
 4 HMDB0001863 2-Hydroxyvaleric acid     3.19     5   500     118.  C5H10O3  CCCC(O)C(O)=O     InCh… JRHWHSJ… FALSE    
 5 HMDB0001624 2-Hydroxycaproic acid     4.32     6   600     132.  C6H12O3  CCCCC(O)C(O)=O    InCh… NYHNVHG… FALSE    
 6 CID2750949  2-hydroxyheptanoic acid   5.16     7   700     146.  C7H14O3  CCCCCC(C(=O)O)O   InCh… RGMMREB… FALSE    
 7 HMDB0000711 2-Hydroxyoctanoic acid    5.83     8   800     160.  C8H16O3  CCCCCCC(O)C(O)=O  InCh… JKRDADV… FALSE    
 8 CID5282897  2-Hydroxynonanoic acid    6.43     9   900     174.  C9H18O3  CCCCCCCC(C(=O)O)O InCh… BTJFTHO… FALSE    
 9 HMDB0242148 2-Hydroxycapric acid      6.96    10  1000     188.  C10H20O3 CCCCCCCCC(O)C(O)… InCh… GHPVDCP… FALSE    
10 HMDB0059736 2-hydroxyundecanoic acid  7.43    11  1100     202.  C11H22O3 CCCCCCCCCC(O)C(O… InCh… MNRBGFK… FALSE    
# ℹ 11 more rows
# ℹ Use `print(n = ...)` to see more rows
```

## Input

***MetaboRI*** requires the user to prepare the following ```tibble``` as input. The correction metabolite carnitine is used as an example:

### experimental_data

Experimental data, including feature id and corresponding retention time.

```R
> data("experimental_data")
> experimental_data
# A tibble: 4,629 × 2
   feature              rt
   <chr>             <dbl>
 1 0.05_97.9687m/z  0.0501
 2 0.14_136.0734m/z 0.142 
 3 0.21_391.8773n   0.214 
 4 0.43_308.2184m/z 0.431 
 5 0.45_234.9509m/z 0.451 
 6 0.45_188.0227m/z 0.451 
 7 0.45_161.0119m/z 0.451 
 8 0.45_200.9741m/z 0.451 
 9 0.45_170.0658m/z 0.451 
10 0.45_146.1651m/z 0.451 
# ℹ 4,619 more rows
# ℹ Use `print(n = ...)` to see more rows
```
…
### Calculate retention index

```R
experimental_data$ri <- sapply(experimental_data$rt, function(x) {
  rt2ri(x, experimental_lc = experimental_car)
})
```

```R
> experimental_data
# A tibble: 4,629 × 3
   feature              rt     ri
   <chr>             <dbl>  <dbl>
 1 0.05_97.9687m/z  0.0501 -100  
 2 0.14_136.0734m/z 0.142   -81.7
 3 0.21_391.8773n   0.214   -67.2
 4 0.43_308.2184m/z 0.431   -23.7
 5 0.45_234.9509m/z 0.451   -19.9
 6 0.45_188.0227m/z 0.451   -19.9
 7 0.45_161.0119m/z 0.451   -19.9
 8 0.45_200.9741m/z 0.451   -19.9
 9 0.45_170.0658m/z 0.451   -19.9
10 0.45_146.1651m/z 0.451   -19.9
# ℹ 4,619 more rows
# ℹ Use `print(n = ...)` to see more rows
```
…
```R
# Make the experimental lc_tibble and standard lc_tibble have the same number of lc.
ResList <- compare_lc_tibble(experimental_lc = experimental_car, standard_lc = standard_car)
experimental_car <- ResList$experimental_lc
standard_car <- ResList$standard_lc
# Calculate new retention time
experimental_data <- orignRT2newRT(experimental_data = experimental_data,
                                   experimental_lc = experimental_car,
                                   standard_lc = standard_car, thread = 1)
```

```R
> experimental_data 
# A tibble: 4,629 × 4
   feature          orign_rt     ri new_rt
   <chr>               <dbl>  <dbl>  <dbl>
 1 0.05_97.9687m/z    0.0501 -100   0.0501
 2 0.14_136.0734m/z   0.142   -81.7 0.136 
 3 0.21_391.8773n     0.214   -67.2 0.204 
 4 0.43_308.2184m/z   0.431   -23.7 0.409 
 5 0.45_234.9509m/z   0.451   -19.9 0.427 
 6 0.45_188.0227m/z   0.451   -19.9 0.427 
 7 0.45_161.0119m/z   0.451   -19.9 0.427 
 8 0.45_200.9741m/z   0.451   -19.9 0.427 
 9 0.45_170.0658m/z   0.451   -19.9 0.427 
10 0.45_146.1651m/z   0.451   -19.9 0.427 
# ℹ 4,619 more rows
# ℹ Use `print(n = ...)` to see more rows
```
